{
    "ncopies": 2,
    "threads_per_copy": 2,
    "events_per_thread": 3,
    "wl-scores": {
        "sim": 0.0114
    },
    "wl-stats": {
        "median": 0.0029,
        "max": 0.0032,
        "avg": 0.0029,
        "min": 0.0025
    },
    "status": {
        "status_copy": [
            1,
            1
        ],
        "successful/all": "2/2"
    },
    "events_proc_Athena(MP)": [
        2,
        2,
        2,
        2
    ],
    "CPU_score": {
        "score_proc": [
            0.0025,
            0.0032,
            0.0032,
            0.0025
        ],
        "score": 0.0114,
        "weighted_score": 0.0112,
        "min": 0.0025,
        "max": 0.0032,
        "avg": 0.0029,
        "median": 0.0029,
        "unit": "evt/s"
    },
    "CPU_proc": {
        "cpuError": [
            113209.917,
            39440.295,
            40010.93,
            113859.395
        ],
        "cpuSys": [
            125.0,
            114.5,
            76.5,
            93.5
        ],
        "cpuAvg": [
            396544.0,
            312534.0,
            313984.0,
            399925.5
        ],
        "evtMaxCPU": [
            "556460@2",
            "368130@1",
            "370400@1",
            "560770@2"
        ]
    },
    "Memory_proc": {
        "vmem": [
            2544456.0,
            2544180.0,
            2543672.0,
            2543948.0
        ],
        "swap": [
            0.0,
            0.0,
            0.0,
            0.0
        ],
        "RSS": [
            1628752.0,
            1625620.0,
            1626420.0,
            1629124.0
        ]
    },
    "walltime_proc": [
        1374274.0,
        1225320.0,
        1229964.0,
        1379406.0
    ],
    "log": "ok",
    "app": {
        "bmkdata_checksum": "b94489e16c0a77f2a0a9aaf333260a96",
        "cvmfs_checksum": "5a371565e9f5abf81686a551c91703ba",
        "version": "v0.18",
        "bmk_checksum": "97142ce8dcd5ebf2dfe5f1d578c4decb",
        "description": "ATLAS Sim (GEANT4) based on athena version 21.0.15",
        "containment": "singularity"
    }
}