{
  "cmdLine": "'/cvmfs/atlas.cern.ch/repo/sw/software/21.0/AtlasOffline/21.0.15/InstallArea/x86_64-slc6-gcc62-opt/share/Sim_tf.py' '--inputEVNTFile=/cvmfs/atlas.cern.ch/repo/benchmarks/hep-workloads/input-data/EVNT.13043099._000859.pool.root.1' '--maxEvents=6' '--postInclude' 'default:RecJobTransforms/UseFrontier.py' '--preExec' 'EVNTtoHITS:simFlags.SimBarcodeOffset.set_Value_and_Lock(200000)' 'EVNTtoHITS:simFlags.TRTRangeCut=30.0;simFlags.TightMuonStepping=True' '--preInclude' 'EVNTtoHITS:SimulationJobOptions/preInclude.BeamPipeKill.py,SimulationJobOptions/preInclude.FrozenShowersFCalOnly.py' '--skipEvents=0' '--firstEvent=6160001' '--outputHITSFile=myHITS.pool.root' '--physicsList=FTFP_BERT_ATL_VALIDATION' '--randomSeed=6163' '--DBRelease=100.0.2' '--conditionsTag' 'default:OFLCOND-MC16-SDR-14' '--geometryVersion=default:ATLAS-R2-2016-01-00-01_VALIDATION' '--runNumber=407343' '--AMITag=s3126' '--DataRunNumber=284500' '--simulator=FullG4' '--truthStrategy=MC15aPlus'", 
  "created": "2019-08-05T00:01:05", 
  "executor": [
    {
      "asetup": null, 
      "errMsg": "", 
      "exeConfig": {
        "inputs": [
          "EVNT"
        ], 
        "outputs": [
          "HITS"
        ], 
        "script": "athena.py", 
        "substep": "sim"
      }, 
      "logfileReport": {
        "countSummary": {
          "CATASTROPHE": 0, 
          "CRITICAL": 0, 
          "DEBUG": 0, 
          "ERROR": 0, 
          "FATAL": 0, 
          "IGNORED": 0, 
          "INFO": 3068, 
          "UNKNOWN": 12939, 
          "VERBOSE": 0, 
          "WARNING": 36
        }, 
        "details": {
          "WARNING": [
            {
              "count": 1, 
              "firstLine": 10069, 
              "message": "-------- WWWW ------- G4Exception-START -------- WWWW -------\n*** G4Exception : GeomNav1002\nissued by : G4Navigator::ComputeStep()\nTrack stuck or not moving.\nTrack stuck, not moving for 10 steps\nin volume -TRT::ModuleShell0- at point (185.652,565.362,-114.869)\ndirection: (-0.395139,0.908965,0.132845).\nPotential geometry or navigation problem !\nTrying pushing it of 1e-07 mm ...Potential overlap in geometry!\n\n*** This is just a warning message. ***\n-------- WWWW -------- G4Exception-END --------- WWWW -------"
            }, 
            {
              "count": 1, 
              "firstLine": 12174, 
              "message": "-------- WWWW ------- G4Exception-START -------- WWWW -------\n*** G4Exception : GeomNav1002\nissued by : G4Navigator::ComputeStep()\nTrack stuck or not moving.\nTrack stuck, not moving for 10 steps\nin volume -LArMgr::LAr::EMEC::Pos::InnerWheel::Absorber- at point (631.04,-174.903,4012.1)\ndirection: (-0.346086,-0.748511,-0.565647).\nPotential geometry or navigation problem !\nTrying pushing it of 1e-07 mm ...Potential overlap in geometry!\n\n*** This is just a warning message. ***\n-------- WWWW -------- G4Exception-END --------- WWWW -------"
            }, 
            {
              "count": 1, 
              "firstLine": 12226, 
              "message": "-------- WWWW ------- G4Exception-START -------- WWWW -------\n*** G4Exception : GeomNav1002\nissued by : G4Navigator::ComputeStep()\nTrack stuck or not moving.\nTrack stuck, not moving for 10 steps\nin volume -LArMgr::LAr::EMEC::Neg::InnerWheel- at point (-647.361,102.192,-4028.75)\ndirection: (-0.0447531,-0.906191,0.420493).\nPotential geometry or navigation problem !\nTrying pushing it of 1e-07 mm ...Potential overlap in geometry!\n\n*** This is just a warning message. ***\n-------- WWWW -------- G4Exception-END --------- WWWW -------"
            }
          ]
        }
      }, 
      "metaData": {}, 
      "name": "EVNTtoHITS", 
      "rc": 0, 
      "statusOK": true, 
      "validation": true
    }
  ], 
  "exitAcronym": "OK", 
  "exitCode": 0, 
  "exitMsg": "OK", 
  "exitMsgExtra": "", 
  "files": {
    "input": [
      {
        "dataset": null, 
        "nentries": 10000, 
        "subFiles": [
          {
            "file_guid": "6F29B2BF-E01D-D541-A819-89CF9B212CB6", 
            "name": "EVNT.13043099._000859.pool.root.1"
          }
        ], 
        "type": "EVNT"
      }
    ], 
    "output": [
      {
        "argName": "outputHITSFile", 
        "dataset": null, 
        "subFiles": [
          {
            "file_guid": "BA04EBDF-5EE4-FD41-93C6-448A4F48FCBC", 
            "file_size": 8376562, 
            "name": "myHITS.pool.root", 
            "nentries": 6
          }
        ], 
        "type": "HITS"
      }
    ]
  }, 
  "name": "Sim_tf", 
  "reportVersion": "2.0.7", 
  "resource": {
    "dbDataTotal": 8609264, 
    "dbTimeTotal": 3.54, 
    "executor": {
      "EVNTtoHITS": {
        "cpuTime": 2476, 
        "cpuTimePerWorker": 1238.0, 
        "dbData": 4271068, 
        "dbTime": 1.63, 
        "memory": {
          "Avg": {
            "avgPSS": 1862491, 
            "avgRSS": 4759712, 
            "avgSwap": 0, 
            "avgVMEM": 6539311, 
            "rateRBYTES": 809945, 
            "rateRCHAR": 549545, 
            "rateWBYTES": 13443, 
            "rateWCHAR": 14887
          }, 
          "Max": {
            "maxPSS": 2093618, 
            "maxRSS": 7093512, 
            "maxSwap": 0, 
            "maxVMEM": 10170824, 
            "totRBYTES": 996233216, 
            "totRCHAR": 675941311, 
            "totWBYTES": 16535552, 
            "totWCHAR": 18312352
          }
        }, 
        "mpworkers": 2, 
        "nevents": 6, 
        "postExe": {
          "cpuTime": 72, 
          "wallTime": 164
        }, 
        "preExe": {
          "cpuTime": 0, 
          "wallTime": 1
        }, 
        "total": {
          "cpuTime": 2549, 
          "wallTime": 1613
        }, 
        "validation": {
          "cpuTime": 0, 
          "wallTime": 0
        }, 
        "wallTime": 1447
      }, 
      "HITSMergeAthenaMP0": {
        "cpuTime": 62, 
        "dbData": 33564, 
        "dbTime": 0.14, 
        "memory": {
          "Avg": {
            "avgPSS": 199807, 
            "avgRSS": 273097, 
            "avgSwap": 0, 
            "avgVMEM": 845101, 
            "rateRBYTES": 3946393, 
            "rateRCHAR": 1870961, 
            "rateWBYTES": 1638, 
            "rateWCHAR": 20297
          }, 
          "Max": {
            "maxPSS": 594939, 
            "maxRSS": 732156, 
            "maxSwap": 0, 
            "maxVMEM": 1848460, 
            "totRBYTES": 473567232, 
            "totRCHAR": 224515413, 
            "totWBYTES": 196608, 
            "totWCHAR": 2435697
          }
        }, 
        "postExe": {
          "cpuTime": 1, 
          "wallTime": 1
        }, 
        "preExe": {
          "cpuTime": 1, 
          "wallTime": 36
        }, 
        "total": {
          "cpuTime": 64, 
          "wallTime": 163
        }, 
        "validation": {
          "cpuTime": 0, 
          "wallTime": 0
        }, 
        "wallTime": 127
      }
    }, 
    "machine": {
      "cpu_family": "6", 
      "linux_distribution": [
        "Scientific Linux CERN SLC", 
        "6.10", 
        "Carbon"
      ], 
      "model": "60", 
      "model_name": "Intel Core Processor (Haswell, no TSX, IBRS)", 
      "node": "51f0889dc406", 
      "platform": "Linux-3.10.0-957.21.3.el7.x86_64-x86_64-with-redhat-6.10-Carbon"
    }, 
    "transform": {
      "cpuEfficiency": 0.7823, 
      "cpuPWEfficiency": 0.8032, 
      "cpuTime": 6, 
      "cpuTimeTotal": 2613, 
      "externalCpuTime": 11, 
      "processedEvents": 6, 
      "trfPredata": null, 
      "wallTime": 1626
    }
  }
}